# This file uses centimeters as units for non-parametric coordinates.

mtllib ElCrescens_L_Shin.mtl
g default
v 130.000000 317.818115 379.119682
v -130.000000 317.818115 379.119743
v -186.000000 38.065918 39.750587
v 186.000000 38.065918 39.750587
v 105.000000 -278.963623 311.383965
v -105.000000 -278.963623 311.383965
vt 0.488200 0.240149
vt 0.472661 0.362720
vt 0.400485 0.362707
vt 0.384813 0.240049
vt 0.472661 0.362720
vt 0.400485 0.362707
vt 0.384813 0.240049
vt 0.488200 0.240149
vt 0.049006 0.378839
vt 0.003378 0.423181
vt 0.049006 0.475960
vt 0.128960 0.423181
vt 0.083317 0.378839
vt 0.083317 0.475960
vn 0.000000 0.771627 -0.636076
vn -0.000000 0.771627 -0.636075
vn -0.000000 0.771627 -0.636075
vn -0.000000 0.771627 -0.636075
vn 0.000000 -0.650645 -0.759382
vn 0.000000 -0.650645 -0.759382
vn 0.000000 -0.650645 -0.759382
vn 0.000000 -0.650645 -0.759382
vn 0.974539 -0.065175 0.214537
vn 0.974539 -0.065175 0.214537
vn 0.974539 -0.065175 0.214537
vn -0.974539 -0.065175 0.214537
vn -0.974539 -0.065175 0.214537
vn -0.974539 -0.065175 0.214537
vn 0.000000 -0.112778 0.993620
vn 0.000000 -0.112778 0.993620
vn 0.000000 -0.112778 0.993620
vn 0.000000 -0.112778 0.993620
s 1
g L_Shin_geo
usemtl lambert7SG
f 3/1/1 2/2/2 4/4/3
f 4/4/3 2/2/2 1/3/4
s 2
f 5/5/5 6/6/6 4/8/7
f 4/8/7 6/6/6 3/7/8
s off
f 5/9/9 4/10/10 1/11/11
f 3/12/12 6/13/13 2/14/14
s 3
f 6/13/15 5/9/16 2/14/17
f 2/14/17 5/9/16 1/11/18
